{
  "applicationId": "wg.network.wg-gui",
  "version": "1.2.1-beta",
  "defaultMode": "window",
  "port": 0,
  "documentRoot": "/resources/",
  "url": "/",
  "enableServer": true,
  "enableNativeAPI": true,
  "tokenSecurity": "one-time",
  "logging": {
    "enabled": false,
    "writeToLogFile": false
  },
  "nativeAllowList": [
    "app.*",
    "os.*",
    "filesystem.*",
    "window.*",
    "debug.log"
  ],
  "modes": {
    "window": {
      "title": "Wireguard",
      "width": 400,
      "height": 450,
      "minWidth": 200,
      "minHeight": 200,
      "fullScreen": false,
      "alwaysOnTop": false,
      "icon": "/resources/icons/wg-cli-icon.png",
      "enableInspector": false,
      "borderless": false,
      "maximize": false,
      "hidden": false,
      "resizable": true,
      "exitProcessOnClose": false
    },
    "browser": {
      "globalVariables": {
        "TEST": "Test value browser"
      },
      "nativeBlockList": [
        "filesystem.*"
      ]
    },
    "cloud": {
      "url": "/resources/#cloud",
      "nativeAllowList": [
        "app.*"
      ]
    },
    "chrome": {
      "width": 800,
      "height": 500,
      "args": "--user-agent=\"Neutralinojs chrome mode\"",
      "nativeBlockList": [
        "filesystem.*",
        "os.*"
      ]
    }
  },
  "cli": {
    "binaryName": "wg-cli",
    "resourcesPath": "/resources/",
    "extensionsPath": "/extensions/",
    "clientLibrary": "/resources/js/neutralino.js",
    "binaryVersion": "4.7.0",
    "clientVersion": "3.6.0"
  }
}
